<?xml version="1.0" encoding="UTF-8" standalone="no"?>
<!-- Created with Inkscape (http://www.inkscape.org/) -->

<svg
   width="32"
   height="32"
   viewBox="0 0 32 32"
   version="1.1"
   id="svg8"
   inkscape:version="1.2.1 (9c6d41e410, 2022-07-14)"
   sodipodi:docname="nav_forward.svg"
   xml:space="preserve"
   inkscape:export-filename="nav_forward.png"
   inkscape:export-xdpi="96"
   inkscape:export-ydpi="96"
   xmlns:inkscape="http://www.inkscape.org/namespaces/inkscape"
   xmlns:sodipodi="http://sodipodi.sourceforge.net/DTD/sodipodi-0.dtd"
   xmlns:xlink="http://www.w3.org/1999/xlink"
   xmlns="http://www.w3.org/2000/svg"
   xmlns:svg="http://www.w3.org/2000/svg"
   xmlns:rdf="http://www.w3.org/1999/02/22-rdf-syntax-ns#"
   xmlns:cc="http://creativecommons.org/ns#"
   xmlns:dc="http://purl.org/dc/elements/1.1/"><defs
     id="defs2"><linearGradient
       id="linearGradient2591"><stop
         id="stop2593"
         offset="0"
         style="stop-color:#5086e8;stop-opacity:1;" /><stop
         id="stop2595"
         offset="1"
         style="stop-color:#2370ff;stop-opacity:1;" /></linearGradient><radialGradient
       gradientUnits="userSpaceOnUse"
       gradientTransform="matrix(0.84746157,0,0,0.45160025,-37.04851,441.56322)"
       r="15.644737"
       fy="36.421127"
       fx="24.837126"
       cy="36.421127"
       cx="24.837126"
       id="radialGradient8668"
       xlink:href="#linearGradient8662"
       inkscape:collect="always" /><linearGradient
       id="linearGradient8662"
       inkscape:collect="always"><stop
         id="stop8664"
         offset="0"
         style="stop-color:#000000;stop-opacity:1;" /><stop
         id="stop8666"
         offset="1"
         style="stop-color:#000000;stop-opacity:0;" /></linearGradient><radialGradient
       inkscape:collect="always"
       xlink:href="#linearGradient2591"
       id="radialGradient2597"
       cx="22.291636"
       cy="29.639383"
       fx="22.291636"
       fy="29.639383"
       r="16.9562"
       gradientTransform="matrix(-1.0824436,0,0,0.35875725,40.237163,447.65759)"
       gradientUnits="userSpaceOnUse" /><radialGradient
       gradientUnits="userSpaceOnUse"
       gradientTransform="matrix(-1.0169773,0,0,0.70399683,37.102699,442.16331)"
       r="17.171415"
       fy="-0.10691132"
       fx="27.2822"
       cy="-0.10691132"
       cx="27.2822"
       id="radialGradient8656"
       xlink:href="#linearGradient8650"
       inkscape:collect="always" /><linearGradient
       id="linearGradient8650"
       inkscape:collect="always"><stop
         id="stop8652"
         offset="0"
         style="stop-color:#ffffff;stop-opacity:1;" /><stop
         id="stop8654"
         offset="1"
         style="stop-color:#ffffff;stop-opacity:0;" /></linearGradient></defs><sodipodi:namedview
     id="base"
     pagecolor="#ffffff"
     bordercolor="#666666"
     borderopacity="1.0"
     inkscape:pageopacity="0.0"
     inkscape:pageshadow="2"
     inkscape:zoom="5.6568543"
     inkscape:cx="21.566757"
     inkscape:cy="37.741824"
     inkscape:document-units="px"
     inkscape:current-layer="layer1"
     showgrid="false"
     units="px"
     inkscape:window-width="1104"
     inkscape:window-height="877"
     inkscape:window-x="2096"
     inkscape:window-y="246"
     inkscape:window-maximized="0"
     inkscape:pagecheckerboard="true"
     inkscape:showpageshadow="2"
     inkscape:deskcolor="#d1d1d1" /><metadata
     id="metadata5"><rdf:RDF><cc:Work
         rdf:about=""><dc:format>image/svg+xml</dc:format><dc:type
           rdf:resource="http://purl.org/dc/dcmitype/StillImage" /></cc:Work></rdf:RDF></metadata><g
     inkscape:label="Layer 1"
     inkscape:groupmode="layer"
     id="layer1"
     transform="translate(0,-437.26664)"><g
       id="g2640"
       transform="matrix(-1,0,0,1,32,0)"><ellipse
         transform="scale(-1,1)"
         id="path8660"
         style="color:#000000;display:inline;overflow:visible;visibility:visible;opacity:0.299465;fill:url(#radialGradient8668);fill-opacity:1;fill-rule:evenodd;stroke:none;stroke-width:1.27119;stroke-linecap:butt;stroke-linejoin:miter;stroke-miterlimit:10;stroke-dasharray:none;stroke-dashoffset:0;stroke-opacity:1;marker:none;marker-start:none;marker-mid:none;marker-end:none"
         cx="-16"
         cy="458.01102"
         rx="13.258314"
         ry="7.0651698" /><path
         sodipodi:nodetypes="cccccccc"
         id="path8643"
         d="m 25.911905,447.73652 v 11.24867 H 17.27682 v 5.61463 L 3.9701954,453.34733 17.272693,441.93346 v 5.80657 z"
         style="color:#000000;display:inline;overflow:visible;visibility:visible;fill:url(#radialGradient2597);fill-opacity:1;fill-rule:evenodd;stroke:#3b71d5;stroke-width:2;stroke-linecap:round;stroke-linejoin:round;stroke-miterlimit:10;stroke-dasharray:none;stroke-dashoffset:0;stroke-opacity:1;marker:none;marker-start:none;marker-mid:none;marker-end:none" /><path
         sodipodi:nodetypes="cccccc"
         id="path8645"
         d="m 16.264203,444.11421 0.01032,4.61976 8.639138,7.9e-4 -0.0035,5.23828 C 13.743438,449.83614 15.683718,457.47741 5.517,453.34052 Z"
         style="color:#000000;display:inline;overflow:visible;visibility:visible;opacity:0.831895;fill:url(#radialGradient8656);fill-opacity:1;fill-rule:evenodd;stroke:none;stroke-width:0.999998;stroke-linecap:round;stroke-linejoin:round;stroke-miterlimit:10;stroke-dasharray:none;stroke-dashoffset:0;stroke-opacity:1;marker:none;marker-start:none;marker-mid:none;marker-end:none" /></g></g></svg>
